%YAML 1.1
%TAG !u! tag:unity3d.com,2011:
--- !u!21 &2100000
Material:
  serializedVersion: 6
  m_ObjectHideFlags: 0
  m_CorrespondingSourceObject: {fileID: 0}
  m_PrefabInstance: {fileID: 0}
  m_PrefabAsset: {fileID: 0}
  m_Name: SunMat
  m_Shader: {fileID: -6465566751694194690, guid: b23f0696b556b334f9071da51346d4fe, type: 3}
  m_ShaderKeywords: 
  m_LightmapFlags: 4
  m_EnableInstancingVariants: 0
  m_DoubleSidedGI: 0
  m_CustomRenderQueue: -1
  stringTagMap: {}
  disabledShaderPasses: []
  m_SavedProperties:
    serializedVersion: 3
    m_TexEnvs:
    - unity_Lightmaps:
        m_Texture: {fileID: 0}
        m_Scale: {x: 1, y: 1}
        m_Offset: {x: 0, y: 0}
    - unity_LightmapsInd:
        m_Texture: {fileID: 0}
        m_Scale: {x: 1, y: 1}
        m_Offset: {x: 0, y: 0}
    - unity_ShadowMasks:
        m_Texture: {fileID: 0}
        m_Scale: {x: 1, y: 1}
        m_Offset: {x: 0, y: 0}
    m_Floats:
    - Vector1_4ed56779b49c4425a7bc94b04738fb9c: 5
    - Vector1_e85a42eec0dc437a808f36d55d0efdba: 52.06
    - Vector1_f846046dee8647e7a6d7bc774c925c28: 1
    m_Colors:
    - Color_62e90b9a6e8544d1943a1b2d7274b545: {r: 0.764151, g: 0.1161387, b: 0.01081344, a: 0}
    - Color_64650d83ad36406da8a34154d8fa48da: {r: 1.301961, g: 0.3137255, b: 0, a: 0}
  m_BuildTextureStacks: []
